<svg width="13" height="9" viewBox="0 0 13 9" fill="none" xmlns="http://www.w3.org/2000/svg">
<path fill-rule="evenodd" clip-rule="evenodd" d="M5.7071 8.7071C5.3166 9.0976 4.6834 9.0976 4.2929 8.7071L0.29289 4.70711C-0.09763 4.31658 -0.09763 3.68342 0.29289 3.29289C0.68342 2.90237 1.31658 2.90237 1.70711 3.29289L5 6.5858L11.2929 0.29289C11.6834 -0.09763 12.3166 -0.09763 12.7071 0.29289C13.0976 0.68342 13.0976 1.31658 12.7071 1.70711L5.7071 8.7071Z" fill="#2CD16E"/>
</svg>
