<svg xmlns="http://www.w3.org/2000/svg" xmlns:xlink="http://www.w3.org/1999/xlink"><symbol id="block-item" viewBox="0 0 18 18">
<path fill-rule="evenodd" clip-rule="evenodd" d="M0 2C0 0.89543 0.89543 0 2 0H6C7.1046 0 8 0.89543 8 2V6C8 7.1046 7.1046 8 6 8H2C0.89543 8 0 7.1046 0 6V2ZM6 2H2V6H6V2Z"/>
<path fill-rule="evenodd" clip-rule="evenodd" d="M0 12C0 10.8954 0.89543 10 2 10H6C7.1046 10 8 10.8954 8 12V16C8 17.1046 7.1046 18 6 18H2C0.89543 18 0 17.1046 0 16V12ZM6 12H2V16H6V12Z"/>
<path fill-rule="evenodd" clip-rule="evenodd" d="M10 2C10 0.89543 10.8954 0 12 0H16C17.1046 0 18 0.89543 18 2V6C18 7.1046 17.1046 8 16 8H12C10.8954 8 10 7.1046 10 6V2ZM16 2H12V6H16V2Z"/>
<path fill-rule="evenodd" clip-rule="evenodd" d="M10 12C10 10.8954 10.8954 10 12 10H16C17.1046 10 18 10.8954 18 12V16C18 17.1046 17.1046 18 16 18H12C10.8954 18 10 17.1046 10 16V12ZM16 12H12V16H16V12Z"/>
</symbol><symbol id="list-item" viewBox="0 0 18 14">
<path fill-rule="evenodd" clip-rule="evenodd" d="M4 1C4 0.44772 4.44772 0 5 0H17C17.5523 0 18 0.44772 18 1C18 1.55228 17.5523 2 17 2H5C4.44772 2 4 1.55228 4 1Z"/>
<path fill-rule="evenodd" clip-rule="evenodd" d="M4 7C4 6.4477 4.44772 6 5 6H17C17.5523 6 18 6.4477 18 7C18 7.5523 17.5523 8 17 8H5C4.44772 8 4 7.5523 4 7Z"/>
<path fill-rule="evenodd" clip-rule="evenodd" d="M4 13C4 12.4477 4.44772 12 5 12H17C17.5523 12 18 12.4477 18 13C18 13.5523 17.5523 14 17 14H5C4.44772 14 4 13.5523 4 13Z"/>
<path d="M2 1C2 1.55228 1.55228 2 1 2C0.44772 2 0 1.55228 0 1C0 0.44772 0.44772 0 1 0C1.55228 0 2 0.44772 2 1Z"/>
<path d="M2 7C2 7.5523 1.55228 8 1 8C0.44772 8 0 7.5523 0 7C0 6.4477 0.44772 6 1 6C1.55228 6 2 6.4477 2 7Z"/>
<path d="M2 13C2 13.5523 1.55228 14 1 14C0.44772 14 0 13.5523 0 13C0 12.4477 0.44772 12 1 12C1.55228 12 2 12.4477 2 13Z"/>
</symbol><symbol id="swiper-next-btn" viewBox="0 0 25 25">
<path d="M7.74024 7.09364L14.3238 12.2121L7.74023 17.3468L7.74023 21.9001L17.4102 14.3821L17.4102 10.0422L7.74024 2.52413L7.74024 7.09364Z"/>
</symbol><symbol id="swiper-prev-btn" viewBox="0 0 25 25">
<path d="M17.4121 17.3307L10.8286 12.2122L17.4121 7.07753V2.52417L7.74219 10.0422V14.3821L17.4121 21.9002V17.3307Z"/>
</symbol></svg>