<svg width="35" height="32" viewBox="0 0 35 32" fill="none" xmlns="http://www.w3.org/2000/svg">
<path d="M29.9835 23.8052V16.0658H18.1749V11.7946H25.9669V1H9.03328V11.7946H16.8252V16.0658H5.01659V23.8052H1V31H10.383V23.8052H6.36632V17.415H16.8251V23.8052H12.8085V31H22.1915V23.8052H18.1749V17.415H28.6337V23.8052H24.617V31H34V23.8052H29.9835ZM10.383 2.3492H24.6171V10.4454H10.383V2.3492ZM9.03328 29.6508H2.34972V25.1544H9.03328V29.6508ZM20.8418 29.6508H14.1583V25.1544H20.8418V29.6508ZM32.6505 29.6508H25.9669V25.1544H32.6505V29.6508Z" fill="#744AA8" stroke="#744AA8" stroke-width="0.2"/>
</svg>
