<svg width="2" height="404" viewBox="0 0 2 404" fill="none" xmlns="http://www.w3.org/2000/svg">
<path d="M1 1L1.00002 403" stroke="#AAAAAA" stroke-linecap="square" stroke-linejoin="round" stroke-dasharray="4 4"/>
</svg>
