<svg width="32" height="37" viewBox="0 0 32 37" fill="none" xmlns="http://www.w3.org/2000/svg">
<rect x="5.36133" y="4.98633" width="24.9401" height="31.0135" fill="white" stroke="#D8D8D8" stroke-width="2"/>
<rect x="1" y="1.12451" width="24.9401" height="31.0135" fill="white" stroke="#D8D8D8" stroke-width="2"/>
<rect x="26.9404" y="17.2217" width="10.9033" height="22.5784" transform="rotate(90 26.9404 17.2217)" fill="#181818"/>
<path d="M8.12179 25.8859V24.4619H6.63379V25.8859H8.12179Z" fill="white"/>
<path d="M9.0356 20.0859V25.8859H10.4036V23.8779H11.2676C12.7716 23.8779 13.8996 23.5019 13.8996 21.9739C13.8996 20.4539 12.7716 20.0859 11.2676 20.0859H9.0356ZM11.3076 21.2379C11.9476 21.2379 12.4516 21.3659 12.4516 21.9739C12.4516 22.5819 11.9476 22.7259 11.3076 22.7259H10.4036V21.2379H11.3076Z" fill="white"/>
<path d="M18.3057 22.9819C18.3057 24.5179 17.3857 24.7339 16.3857 24.7339H15.8177V21.2379H16.3857C17.3857 21.2379 18.3057 21.4459 18.3057 22.9819ZM14.4497 20.0859V25.8859H16.3617C18.2577 25.8859 19.7537 25.1899 19.7537 22.9819C19.7537 20.7819 18.2577 20.0859 16.3617 20.0859H14.4497Z" fill="white"/>
<path d="M20.4497 25.8859H21.8177V23.5099H24.5457V22.3019H21.8177V21.2859H24.7217V20.0859H20.4497V25.8859Z" fill="white"/>
</svg>
