<svg width="14" height="12" viewBox="0 0 14 12" fill="none" xmlns="http://www.w3.org/2000/svg">
<path d="M7.33333 1.33366L12 6.00033M12 6.00033L7.33333 10.667M12 6.00033L4.07973e-07 6.00032" stroke="inherit" stroke-width="2"/>
</svg>
