<svg width="150" height="18" viewBox="0 0 150 18" fill="none" xmlns="http://www.w3.org/2000/svg">
<path fill-rule="evenodd" clip-rule="evenodd" d="M13.7669 17.3977H10.4867V7.57527H6.3864V9.98454C6.3864 10.8185 6.29528 11.6525 6.20417 12.4865C6.11305 13.3204 5.8397 14.1544 5.47523 14.8957C5.20188 15.637 4.65517 16.2857 4.01735 16.749C3.37953 17.2123 2.55948 17.3977 1.46607 17.3977H0.19043V14.2471H1.1016C1.55719 14.2471 1.92166 14.1544 2.19501 13.8764C2.46836 13.5984 2.65059 13.2278 2.74171 12.7645C2.92395 12.3011 2.92395 11.8378 3.01506 11.3745V4.70269H13.7669V17.3977ZM27.07 15.2664C26.6144 15.8224 26.1588 16.2857 25.6121 16.6564C25.0654 17.027 24.4276 17.305 23.7898 17.4903C23.152 17.6757 22.5141 17.7683 21.8763 17.7683C20.874 17.7683 19.9629 17.583 19.1428 17.305C18.3228 16.9343 17.5938 16.471 16.956 15.8224C16.4093 15.2664 15.9537 14.5251 15.5892 13.6911C15.2248 12.8571 15.0425 12.0231 15.0425 11.0038C15.0425 10.0772 15.2248 9.15056 15.5892 8.40925C15.8626 7.57527 16.3182 6.83396 16.956 6.27798C17.5027 5.62933 18.2316 5.16601 19.0517 4.79535C19.8717 4.51736 20.7829 4.33203 21.6941 4.33203C22.6964 4.33203 23.6076 4.51736 24.4276 4.79535C25.1565 5.16601 25.8855 5.62933 26.4322 6.27798C26.9789 6.83396 27.4345 7.57527 27.7989 8.31659C28.0723 9.15056 28.2545 10.0772 28.2545 11.0038V11.5598C28.2545 11.7452 28.2545 11.9305 28.1634 12.1158H18.505C18.6872 12.9498 19.1428 13.5058 19.6895 13.9691C20.3273 14.4324 21.0563 14.6177 21.8763 14.6177C22.423 14.6177 22.8786 14.6177 23.3342 14.4324C23.7898 14.2471 24.1543 13.9691 24.4276 13.5984H28.0723C27.7989 14.2471 27.4345 14.8031 27.07 15.2664ZM23.6987 7.85327C23.152 7.38995 22.5141 7.20462 21.6941 7.20462C20.9652 7.20462 20.3273 7.38995 19.6895 7.85327C19.0517 8.31659 18.6872 8.87257 18.5961 9.61388H24.701C24.6098 8.87257 24.2454 8.31659 23.6987 7.85327ZM37.0929 9.61388L41.5576 4.70269H44.929V17.4903H41.6488V10.0772L38.5508 13.5984H35.5439L32.537 10.0772V17.4903H29.2568V4.70269H32.6282L37.0929 9.61388ZM49.3026 10.0772V17.4903H46.0224V4.70269H49.4848L53.8585 9.61388L58.3232 4.70269H61.6946V17.4903H58.4143V10.0772L55.3163 13.5984H52.3095L49.3026 10.0772ZM70.9885 4.61002C71.8086 4.88802 72.4464 5.25867 72.9931 5.62933C73.5398 6.09265 73.9043 6.64863 74.2687 7.29728C74.5421 7.94593 74.7243 8.68724 74.7243 9.42856V17.4903H71.9908L71.7174 17.027L71.4441 16.471C70.9885 16.9343 70.4418 17.305 69.7129 17.4903C68.9839 17.6757 68.255 17.7683 67.4349 17.7683C65.9771 17.7683 64.7925 17.3977 63.8814 16.6564C63.0613 15.915 62.6057 14.8957 62.6057 13.5058C62.6057 12.6718 62.788 12.0231 63.1524 11.4672C63.4258 10.9112 63.8814 10.5405 64.4281 10.2625C64.9748 9.89188 65.6126 9.70655 66.2504 9.61388C66.9793 9.42856 67.7083 9.42856 68.4372 9.42856H71.4441C71.4441 8.68724 71.0796 8.22392 70.624 7.7606C70.0773 7.48261 69.6217 7.29728 68.8928 7.29728C68.1639 7.29728 67.5261 7.38995 67.0705 7.66794C66.5238 7.94593 66.2504 8.31659 65.9771 8.87257H62.6057C62.788 8.03859 63.0613 7.38995 63.5169 6.83396C63.8814 6.27798 64.337 5.81466 64.8837 5.444C65.5215 4.98068 66.0682 4.70269 66.706 4.61002C67.4349 4.4247 68.0728 4.33203 68.8017 4.33203C69.7129 4.33203 70.2596 4.4247 70.9885 4.61002ZM68.4372 11.9305C67.6172 11.9305 66.9793 12.0231 66.5238 12.3011C66.0682 12.5791 65.8859 12.9498 65.8859 13.5058C65.8859 13.9691 66.0682 14.3398 66.4326 14.6177C66.7971 14.8957 67.3438 15.0811 68.0728 15.0811C68.5283 15.0811 68.9839 14.9884 69.3484 14.8957C69.7129 14.8031 70.0773 14.6177 70.4418 14.4324C70.7152 14.2471 70.9885 13.9691 71.1707 13.5984C71.353 13.3204 71.4441 12.8571 71.4441 12.4865V11.9305H68.4372Z" fill="white"/>
<path fill-rule="evenodd" clip-rule="evenodd" d="M92.7656 4.70272H80.1914V17.4904H83.5627V7.66798H89.3942V17.4904H92.7656V4.70272ZM107.527 4.70272H96.7747V11.3745C96.7747 11.9305 96.6836 12.3938 96.5014 12.7645C96.4103 13.2278 96.228 13.5985 95.9547 13.8765C95.6813 14.1545 95.3169 14.3398 94.8613 14.3398H93.9501V17.4904H95.2258C96.3192 17.4904 97.1392 17.2124 97.777 16.7491C98.4149 16.2857 98.9616 15.6371 99.326 14.8958C99.5994 14.1545 99.8727 13.4131 99.9638 12.4865C100.055 11.6525 100.146 10.8186 100.146 9.98458V7.66798H104.246V17.4904H107.527V4.70272ZM121.741 13.6911H118.187C117.914 14.1545 117.549 14.3398 117.094 14.5251C116.638 14.7104 116.183 14.8031 115.636 14.8031C114.816 14.8031 114.087 14.5251 113.449 14.1545C112.903 13.6911 112.447 13.0425 112.265 12.2085H122.014V11.0965C122.014 10.1699 121.832 9.24327 121.559 8.40929C121.194 7.66798 120.739 6.92666 120.192 6.37068C119.645 5.72203 118.916 5.25871 118.096 4.88805C117.367 4.61006 116.456 4.42473 115.454 4.42473C114.543 4.42473 113.631 4.61006 112.811 4.88805C111.991 5.25871 111.262 5.72203 110.716 6.27801C110.078 6.92666 109.622 7.57531 109.349 8.40929C108.984 9.24327 108.893 10.1699 108.893 11.0965C108.893 12.1159 109.076 12.9498 109.349 13.7838C109.713 14.6178 110.169 15.3591 110.807 15.9151C111.445 16.4711 112.174 16.9344 112.994 17.305C113.814 17.6757 114.634 17.861 115.636 17.861C116.274 17.861 117.003 17.6757 117.641 17.4904C118.278 17.305 118.825 17.0271 119.372 16.6564C119.919 16.2857 120.465 15.8224 120.83 15.3591C121.285 14.8031 121.559 14.3398 121.832 13.6911H121.741ZM118.552 9.61392H112.447C112.538 8.96527 112.903 8.31662 113.54 7.94597C114.087 7.48265 114.816 7.29732 115.545 7.29732C116.365 7.29732 117.003 7.48265 117.549 7.94597C118.096 8.31662 118.461 8.96527 118.552 9.70659V9.61392ZM135.773 4.70272H132.402L126.388 12.7645V4.70272H123.017V17.4904H126.388L132.402 9.33593V17.4904H135.773V4.70272ZM129.395 0.99616C128.757 0.99616 128.21 0.718168 127.846 0.254847C127.755 0.254847 127.663 0.162183 127.663 0.069519H125.294C125.386 0.162183 125.386 0.254847 125.477 0.347511C125.659 0.903496 125.932 1.36682 126.388 1.73747C126.752 2.10813 127.208 2.38612 127.755 2.66411C128.21 2.84944 128.848 2.94211 129.486 2.94211C129.941 2.94211 130.397 2.94211 130.761 2.75678C131.217 2.66411 131.582 2.47879 131.946 2.20079C132.31 1.9228 132.584 1.64481 132.857 1.27415C133.131 0.903496 133.313 0.53284 133.495 0.069519H131.308C131.126 0.347511 130.853 0.625504 130.488 0.718168C130.124 0.903496 129.85 0.99616 129.395 0.99616ZM143.7 14.7104C142.698 14.7104 141.878 14.3398 141.24 13.6911C140.693 13.0425 140.329 12.2085 140.329 11.1892C140.329 10.0772 140.693 9.24327 141.24 8.59462C141.878 7.8533 142.698 7.57531 143.7 7.57531C144.247 7.57531 144.794 7.66798 145.249 7.8533C145.796 8.1313 146.16 8.40929 146.434 8.96527H149.805C149.623 8.22396 149.258 7.57531 148.894 7.01933C148.529 6.46334 147.983 6.00002 147.436 5.62936C146.889 5.25871 146.343 4.98072 145.705 4.70272C145.067 4.5174 144.429 4.42473 143.7 4.42473C142.698 4.42473 141.878 4.61006 141.058 4.88805C140.238 5.25871 139.509 5.72203 138.962 6.27801C138.324 6.92666 137.869 7.57531 137.504 8.40929C137.231 9.24327 137.049 10.1699 137.049 11.0965C137.049 12.1159 137.231 12.9498 137.595 13.7838C137.869 14.6178 138.415 15.3591 138.962 15.9151C139.509 16.5637 140.238 17.0271 141.058 17.305C141.878 17.6757 142.789 17.861 143.7 17.861C144.429 17.861 145.158 17.7684 145.796 17.4904C146.434 17.305 146.98 17.0271 147.618 16.6564C148.165 16.2857 148.62 15.8224 148.985 15.2664C149.441 14.6178 149.714 13.9691 149.987 13.3205H146.616C146.251 13.7838 145.887 14.1545 145.34 14.3398C144.794 14.6178 144.338 14.7104 143.7 14.7104Z" fill="white"/>
<path fill-rule="evenodd" clip-rule="evenodd" d="M77.4569 17.7683C78.277 17.7683 78.9148 17.1196 78.9148 16.2857C78.9148 15.5443 78.277 14.8957 77.4569 14.8957C76.6368 14.8957 75.999 15.5443 75.999 16.2857C75.999 17.1196 76.6368 17.7683 77.4569 17.7683Z" fill="white"/>
</svg>
