<svg width="11" height="12" viewBox="0 0 11 12" fill="none" xmlns="http://www.w3.org/2000/svg">
<path d="M10.9783 3.42675C10.9269 3.25303 10.8099 3.14589 10.6587 3.05613C9.03253 2.08326 7.40633 1.11039 5.78298 0.131727C5.59468 0.0188044 5.4178 0.0101195 5.2295 0.125938C3.58333 1.11618 1.93715 2.10063 0.290978 3.08798C0.0627394 3.22696 -0.0285568 3.43833 0.0484743 3.66128C0.0941219 3.79447 0.191124 3.88134 0.310949 3.94793C0.867282 4.25485 1.42361 4.56466 1.9828 4.86869C2.05698 4.90922 2.0798 4.94976 2.0798 5.03373C2.07695 6.05003 2.07695 7.06633 2.07695 8.08264C2.07695 8.42141 2.25954 8.60671 2.59334 8.60671C4.53337 8.60671 6.4734 8.60671 8.41058 8.60671C8.73868 8.60671 8.92412 8.41851 8.92412 8.09133C8.92412 7.07502 8.92412 6.05872 8.92127 5.04241C8.92127 4.95555 8.94409 4.90922 9.02112 4.86579C9.56319 4.57046 10.1024 4.26643 10.6445 3.9711C10.8042 3.88423 10.9241 3.7771 10.9754 3.59758C10.9783 3.54257 10.9783 3.48466 10.9783 3.42675ZM1.40935 3.49914C1.44073 3.47598 1.46356 3.4615 1.48638 3.44702C2.79876 2.65946 4.11113 1.87189 5.4235 1.08433C5.48056 1.04959 5.52051 1.05248 5.57757 1.08723C6.88423 1.87189 8.1909 2.65656 9.49472 3.43833C9.52325 3.4557 9.55463 3.47598 9.58887 3.49914C9.56319 3.51362 9.54892 3.5252 9.53466 3.53388C8.21658 4.26354 6.89565 4.99319 5.57757 5.72574C5.5148 5.76049 5.46915 5.7518 5.41209 5.71995C4.41069 5.16402 3.40644 4.6081 2.40219 4.05217C2.0741 3.86976 1.746 3.68734 1.40935 3.49914ZM8.0026 7.67727C6.3279 7.67727 4.66461 7.67727 2.99846 7.67727C2.99846 6.93314 2.99846 6.19191 2.99846 5.44199C3.03841 5.46226 3.06979 5.47673 3.10117 5.4941C3.81157 5.88789 4.52196 6.27877 5.2295 6.67255C5.41494 6.77679 5.58898 6.77679 5.77442 6.67255C6.48196 6.27588 7.19236 5.88499 7.90275 5.4941C7.93413 5.47673 7.96552 5.46226 8.00546 5.44199C8.0026 6.19191 8.0026 6.93025 8.0026 7.67727Z" fill="#324ABD"/>
<path d="M1.07289 11.1577C1.20983 11.094 1.36389 11.0534 1.48372 10.9637C1.83749 10.7089 1.94305 10.2485 1.7519 9.85471C1.62352 9.59122 1.43807 9.37116 1.2241 9.18006C1.07574 9.04687 0.850354 9.02371 0.699145 9.14821C0.399581 9.39143 0.148517 9.67808 0.0486625 10.0661C-0.0626042 10.5033 0.225548 10.981 0.664909 11.1171C0.707704 11.1316 0.750499 11.1461 0.793294 11.1606C0.887443 11.1577 0.978739 11.1577 1.07289 11.1577Z" fill="#324ABD"/>
<path d="M1.39209 6.98239C1.39209 6.60888 1.39209 6.23826 1.39209 5.86474C1.39209 5.5781 1.20094 5.36673 0.938465 5.36673C0.678843 5.36383 0.479133 5.5752 0.479133 5.86185C0.47628 6.61467 0.47628 7.36749 0.479133 8.1203C0.479133 8.40695 0.681696 8.61542 0.938465 8.61253C1.20094 8.60963 1.39209 8.40116 1.39209 8.11161C1.39209 7.73521 1.39209 7.3588 1.39209 6.98239Z" fill="#324ABD"/>
</svg>
